<svg id="Group_13" data-name="Group 13" xmlns="http://www.w3.org/2000/svg" width="56" height="56" viewBox="0 0 56 56">
  <g id="Group_12" data-name="Group 12" transform="translate(1 1)">
    <g id="Group_11" data-name="Group 11">
      <path id="Path_13" data-name="Path 13" d="M1,28A27,27,0,1,1,28,55,27,27,0,0,1,1,28Z" transform="translate(-1 -1)" fill="none" stroke="#c0a062" stroke-linecap="round" stroke-linejoin="round" stroke-width="2"/>
      <path id="Path_14" data-name="Path 14" d="M7,32.739A11.134,11.134,0,0,0,18.2,43.8a11.036,11.036,0,0,0,10.267-6.454A11.2,11.2,0,1,0,38.735,21.674h0a10.807,10.807,0,0,0,.933-4.61,11.2,11.2,0,0,0-22.4,0,10.806,10.806,0,0,0,.933,4.61h0A11.134,11.134,0,0,0,7,32.739Z" transform="translate(-1.468 -1.39)" fill="none" stroke="#c0a062" stroke-linecap="round" stroke-linejoin="round" stroke-width="2"/>
      <path id="Path_15" data-name="Path 15" d="M19,23H39.284L29.142,38.674Z" transform="translate(-2.142 -2.435)" fill="none" stroke="#c0a062" stroke-linecap="round" stroke-linejoin="round" stroke-width="2"/>
    </g>
  </g>
</svg>
