<svg xmlns="http://www.w3.org/2000/svg" width="22" height="32" viewBox="0 0 22 32">
  <g id="Group_200" data-name="Group 200" transform="translate(542 98.065)">
    <g id="Group_195" data-name="Group 195" transform="translate(-541.717 -98.065)">
      <circle id="Ellipse_83" data-name="Ellipse 83" cx="3.664" cy="3.664" r="3.664" transform="translate(0)" fill="#c0a062"/>
    </g>
    <g id="Group_196" data-name="Group 196" transform="translate(-527.327 -88.649)">
      <circle id="Ellipse_84" data-name="Ellipse 84" cx="3.664" cy="3.664" r="3.664" transform="translate(0)" fill="#c0a062"/>
    </g>
    <g id="Group_197" data-name="Group 197" transform="translate(-542 -73.393)">
      <circle id="Ellipse_85" data-name="Ellipse 85" cx="3.664" cy="3.664" r="3.664" transform="translate(0 0)" fill="#c0a062"/>
    </g>
    <g id="Group_198" data-name="Group 198" transform="translate(-539.038 -94.86)">
      <rect id="Rectangle_195" data-name="Rectangle 195" width="1.086" height="17.628" transform="matrix(0.534, -0.845, 0.845, 0.534, 0, 0.918)" fill="#c0a062"/>
    </g>
    <g id="Group_199" data-name="Group 199" transform="translate(-539.07 -85.368)">
      <path id="Path_136" data-name="Path 136" d="M.026.472,21.2.12l-.018,1.068L.009,1.539Z" transform="matrix(0.706, -0.709, 0.709, 0.706, 0, 14.941)" fill="#c0a062"/>
    </g>
  </g>
</svg>
