<svg id="Group_22" data-name="Group 22" xmlns="http://www.w3.org/2000/svg" width="12.572" height="24" viewBox="0 0 12.572 24">
  <path id="Path_30" data-name="Path 30" d="M34.175,0,31.16,0c-3.388,0-5.577,2.318-5.577,5.906V8.63H22.551a.482.482,0,0,0-.474.49v3.946a.482.482,0,0,0,.474.489h3.032v9.956a.482.482,0,0,0,.474.489h3.956a.482.482,0,0,0,.474-.489V13.554h3.545a.482.482,0,0,0,.474-.489V9.119a.5.5,0,0,0-.139-.346.467.467,0,0,0-.336-.144H30.487V6.321c0-1.11.256-1.673,1.657-1.673h2.031a.482.482,0,0,0,.474-.489V.494A.482.482,0,0,0,34.175,0Z" transform="translate(-22.077)" fill="#c0a062"/>
</svg>
