<svg xmlns="http://www.w3.org/2000/svg" width="78" height="80" viewBox="0 0 78 80">
  <g id="Group_165" data-name="Group 165" transform="translate(-1432.954 -544.932)">
    <g id="Group_112" data-name="Group 112" transform="translate(1461.251 544.932)">
      <path id="Path_99" data-name="Path 99" d="M1559.4,562.629h-21.19l10.595-17.7Zm-19.28-1.083h17.369l-8.685-14.506Z" transform="translate(-1538.211 -544.932)" fill="#c0a062"/>
    </g>
    <g id="Group_113" data-name="Group 113" transform="translate(1432.954 592.173)">
      <path id="Path_100" data-name="Path 100" d="M1453.8,737.69h-20.844l10.713-17.933Zm-18.935-1.083h17.08l-8.3-14.694Z" transform="translate(-1432.954 -719.758)" fill="#c0a062"/>
    </g>
    <g id="Group_114" data-name="Group 114" transform="translate(1489.444 592.2)">
      <path id="Path_101" data-name="Path 101" d="M1664.6,737.761h-21.51l10.7-17.906Zm-19.6-1.083h17.684l-8.89-14.72Z" transform="translate(-1643.085 -719.855)" fill="#c0a062"/>
    </g>
    <g id="Group_115" data-name="Group 115" transform="translate(1494.421 597.731)">
      <path id="Path_102" data-name="Path 102" d="M1673.372,749.906h-11.9l5.76-9.621Zm-9.99-1.083h8.015l-4.135-6.48Z" transform="translate(-1661.471 -740.285)" fill="#c0a062"/>
    </g>
    <g id="Group_116" data-name="Group 116" transform="translate(1437.614 597.747)">
      <path id="Path_103" data-name="Path 103" d="M1462.3,749.947h-12.134l5.751-9.606Zm-10.224-1.083h8.2l-4.316-6.495Z" transform="translate(-1450.168 -740.341)" fill="#c0a062"/>
    </g>
    <g id="Group_117" data-name="Group 117" transform="translate(1444.679 561.769)">
      <rect id="Rectangle_106" data-name="Rectangle 106" width="39.491" height="1.083" transform="translate(0 34.032) rotate(-59.516)" fill="#c0a062"/>
    </g>
    <g id="Group_118" data-name="Group 118" transform="translate(1477.833 561.769)">
      <rect id="Rectangle_107" data-name="Rectangle 107" width="1.083" height="39.607" transform="matrix(0.859, -0.512, 0.512, 0.859, 0, 0.554)" fill="#c0a062"/>
    </g>
    <g id="Group_119" data-name="Group 119" transform="translate(1451.119 606.267)">
      <rect id="Rectangle_108" data-name="Rectangle 108" width="41.124" height="1.083" fill="#c0a062"/>
    </g>
    <g id="Group_120" data-name="Group 120" transform="translate(1446.206 561.763)">
      <rect id="Rectangle_109" data-name="Rectangle 109" width="42.999" height="1.083" transform="matrix(0.519, -0.855, 0.855, 0.519, 0, 36.756)" fill="#c0a062"/>
    </g>
    <g id="Group_121" data-name="Group 121" transform="translate(1474.458 561.765)">
      <rect id="Rectangle_110" data-name="Rectangle 110" width="1.083" height="42.852" transform="matrix(0.858, -0.514, 0.514, 0.858, 0, 0.557)" fill="#c0a062"/>
    </g>
    <g id="Group_122" data-name="Group 122" transform="translate(1448.844 602.247)">
      <rect id="Rectangle_111" data-name="Rectangle 111" width="45.803" height="1.083" transform="translate(0)" fill="#c0a062"/>
    </g>
    <g id="Group_123" data-name="Group 123" transform="translate(1468.42 562.408)">
      <path id="Path_104" data-name="Path 104" d="M1568.1,615.653l-3.41-5.48.92-.572,2.522,4.053,2.712-4.068.9.6Z" transform="translate(-1564.693 -609.586)" fill="#c0a062"/>
    </g>
    <g id="Group_124" data-name="Group 124" transform="translate(1465.656 566.37)">
      <path id="Path_105" data-name="Path 105" d="M1560.486,635.3l-6.005-10.5.94-.538,5.1,8.915,5.515-8.93.921.569Z" transform="translate(-1554.481 -624.253)" fill="#c0a062"/>
    </g>
    <g id="Group_125" data-name="Group 125" transform="translate(1462.831 571.467)">
      <path id="Path_106" data-name="Path 106" d="M1547.267,649.345l-3.337-5.662.933-.55,2.383,4.043,2.293-4.073.944.531Z" transform="translate(-1543.929 -643.103)" fill="#c0a062"/>
    </g>
    <g id="Group_126" data-name="Group 126" transform="translate(1474.205 571.452)">
      <path id="Path_107" data-name="Path 107" d="M1589.614,649.259l-3.434-5.651.925-.563,2.511,4.133,2.5-4.094.924.565Z" transform="translate(-1586.18 -643.045)" fill="#c0a062"/>
    </g>
    <g id="Group_127" data-name="Group 127" transform="translate(1447.875 596.518)">
      <path id="Path_108" data-name="Path 108" d="M1491.622,742.178l-.972-.478,2.379-4.834h-4.655v-1.083h6.395Z" transform="translate(-1488.374 -735.783)" fill="#c0a062"/>
    </g>
    <g id="Group_128" data-name="Group 128" transform="translate(1450.345 592.448)">
      <path id="Path_109" data-name="Path 109" d="M1504.187,731.044l-.98-.461,4.119-8.762h-9.749v-1.083h11.454Z" transform="translate(-1497.578 -720.739)" fill="#c0a062"/>
    </g>
    <g id="Group_129" data-name="Group 129" transform="translate(1453.1 587.482)">
      <path id="Path_110" data-name="Path 110" d="M1511.243,708.089l-.989-.442,1.884-4.216h-4.356v-1.083h6.025Z" transform="translate(-1507.783 -702.348)" fill="#c0a062"/>
    </g>
    <g id="Group_130" data-name="Group 130" transform="translate(1458.823 596.79)">
      <path id="Path_111" data-name="Path 111" d="M1532.673,742.748l-.981-.458,1.895-4.06-4.548-.362.086-1.08,6.1.486Z" transform="translate(-1529.039 -736.789)" fill="#c0a062"/>
    </g>
    <g id="Group_131" data-name="Group 131" transform="translate(1454.119 592.733)">
      <rect id="Rectangle_112" data-name="Rectangle 112" width="1.083" height="6.777" transform="translate(0 0.567) rotate(-31.579)" fill="#c0a062"/>
    </g>
    <g id="Group_132" data-name="Group 132" transform="translate(1489.563 596.789)">
      <path id="Path_112" data-name="Path 112" d="M1646.347,742.766l-3.128-5.983h6.321v1.083h-4.533l2.3,4.4Z" transform="translate(-1643.219 -736.783)" fill="#c0a062"/>
    </g>
    <g id="Group_133" data-name="Group 133" transform="translate(1484.104 588.023)">
      <path id="Path_113" data-name="Path 113" d="M1625.948,709.607l-3-5.259h6.653v1.083h-4.788l2.077,3.639Z" transform="translate(-1622.947 -704.348)" fill="#c0a062"/>
    </g>
    <g id="Group_134" data-name="Group 134" transform="translate(1482.4 592.718)">
      <path id="Path_114" data-name="Path 114" d="M1621.964,732.06l-5.275-10.322h11.331v1.083h-9.562l4.47,8.746Z" transform="translate(-1616.688 -721.739)" fill="#c0a062"/>
    </g>
    <g id="Group_135" data-name="Group 135" transform="translate(1479.117 596.912)">
      <path id="Path_115" data-name="Path 115" d="M1607.851,743.271l-3.431-5.953,6.344-.079.013,1.083-4.5.056,2.508,4.352Z" transform="translate(-1604.421 -737.24)" fill="#c0a062"/>
    </g>
    <g id="Group_136" data-name="Group 136" transform="translate(1486.427 593.014)">
      <rect id="Rectangle_113" data-name="Rectangle 113" width="7.405" height="1.083" transform="translate(0 6.303) rotate(-58.336)" fill="#c0a062"/>
    </g>
    <g id="Group_137" data-name="Group 137" transform="translate(1465.684 550.109)">
      <path id="Path_116" data-name="Path 116" d="M1566.325,574.034H1554.58l6.188-9.978Zm-9.8-1.083h7.958l-3.765-6.76Z" transform="translate(-1554.58 -564.056)" fill="#c0a062"/>
    </g>
    <g id="Group_138" data-name="Group 138" transform="translate(1468.033 569.773)">
      <rect id="Rectangle_114" data-name="Rectangle 114" width="7.521" height="1.083" transform="translate(0 0)" fill="#c0a062"/>
    </g>
    <g id="Group_139" data-name="Group 139" transform="translate(1459.388 578.484)">
      <path id="Path_117" data-name="Path 117" d="M1543.767,684.294c-3.3,0-6.474-1.977-8.558-3.636a27.8,27.8,0,0,1-2.725-2.491c-1.158-1.211-1.158-1.352-1.158-1.53,0-.575,2.576-2.94,3.924-3.985,2.1-1.626,5.287-3.565,8.588-3.565s6.462,1.956,8.522,3.6c1.513,1.205,3.848,3.491,3.848,4.06s-2.552,2.941-3.887,3.985C1550.241,682.354,1547.068,684.294,1543.767,684.294Zm-11.213-7.667c1.1,1.265,6.042,6.584,11.213,6.584,5.035,0,10.116-5.14,11.234-6.48-1.045-1.3-6.07-6.561-11.163-6.561C1538.823,670.17,1533.725,675.25,1532.554,676.627Z" transform="translate(-1531.326 -669.087)" fill="#c0a062"/>
    </g>
    <g id="Group_140" data-name="Group 140" transform="translate(1459.926 582.614)">
      <path id="Path_118" data-name="Path 118" d="M1533.71,691.1l-.575-.917,4.13-2.588-4.107-2.308.53-.944,5.7,3.2Z" transform="translate(-1533.134 -684.344)" fill="#c0a062"/>
    </g>
    <g id="Group_141" data-name="Group 141" transform="translate(1477.303 582.62)">
      <path id="Path_119" data-name="Path 119" d="M1603.235,691.123l-5.554-3.291,5.873-3.467.551.933-4.3,2.536,3.979,2.358Z" transform="translate(-1597.68 -684.365)" fill="#c0a062"/>
    </g>
    <g id="Group_142" data-name="Group 142" transform="translate(1466.882 581.035)">
      <path id="Path_120" data-name="Path 120" d="M1564.014,688.518a5,5,0,1,1,5-5A5.01,5.01,0,0,1,1564.014,688.518Zm0-8.924a3.921,3.921,0,1,0,3.921,3.921A3.925,3.925,0,0,0,1564.014,679.594Z" transform="translate(-1559.01 -678.511)" fill="#c0a062"/>
    </g>
    <g id="Group_143" data-name="Group 143" transform="translate(1479.266 550.653)">
      <path id="Path_121" data-name="Path 121" d="M1634.936,615.743l-1.048-.272a39.7,39.7,0,0,0-28.4-48.359l.272-1.048A40.785,40.785,0,0,1,1634.936,615.743Z" transform="translate(-1605.488 -566.064)" fill="#c0a062"/>
    </g>
    <g id="Group_144" data-name="Group 144" transform="translate(1443.217 612.147)">
      <path id="Path_122" data-name="Path 122" d="M1499.582,806.427a40.193,40.193,0,0,1-28.718-12.022l.763-.763a39.237,39.237,0,0,0,55.7.211l.758.769A40.193,40.193,0,0,1,1499.582,806.427Z" transform="translate(-1470.864 -793.642)" fill="#c0a062"/>
    </g>
    <g id="Group_145" data-name="Group 145" transform="translate(1433.84 550.54)">
      <path id="Path_123" data-name="Path 123" d="M1437.541,615.325a40.784,40.784,0,0,1,29.176-49.679l.272,1.048a39.7,39.7,0,0,0-28.4,48.359Z" transform="translate(-1436.226 -565.646)" fill="#c0a062"/>
    </g>
    <g id="Group_146" data-name="Group 146" transform="translate(1482.536 557.94)">
      <path id="Path_124" data-name="Path 124" d="M1638.951,629.08l-.84-.684c1.21-1.484,2.367-3.073,2.094-4.744a5.233,5.233,0,0,0-.651-1.643c-2.012-3.6-5.383-6.293-8.642-8.894q-.643-.513-1.279-1.026a23.546,23.546,0,0,1-5-5.063,9.308,9.308,0,0,1-1.567-7.427,2.015,2.015,0,0,1,.776-1.149,1.461,1.461,0,0,1,2.015.271,6.616,6.616,0,0,1,1.493,3.8,7.028,7.028,0,0,0,.841,2.754c0,.005.009.011.027.01s.029-.015.031-.021a8.294,8.294,0,0,0,.33-3.238,7.606,7.606,0,0,0-.318-2.359,8.169,8.169,0,0,0-2.787-3.61,12.792,12.792,0,0,0-7.839-1.836l-.061-1.081a13.849,13.849,0,0,1,8.488,2.007,9.248,9.248,0,0,1,3.216,4.145,8.516,8.516,0,0,1,.385,2.7,9.133,9.133,0,0,1-.406,3.672,1.119,1.119,0,0,1-1.959.221,7.91,7.91,0,0,1-1.013-3.182,5.758,5.758,0,0,0-1.19-3.212c-.323-.321-.466-.265-.633-.149a.936.936,0,0,0-.347.537,8.232,8.232,0,0,0,1.421,6.548,22.622,22.622,0,0,0,4.782,4.822q.633.512,1.274,1.021c3.341,2.667,6.8,5.423,8.912,9.213a6.206,6.206,0,0,1,.775,2C1641.62,625.592,1640.256,627.478,1638.951,629.08Z" transform="translate(-1617.57 -593.108)" fill="#c0a062"/>
    </g>
    <g id="Group_147" data-name="Group 147" transform="translate(1481.972 564.695)">
      <path id="Path_125" data-name="Path 125" d="M1631.362,644.513c-1.772-3.727-3.5-8.132-2.888-12.536a5.325,5.325,0,0,1,1.038-2.707,2.685,2.685,0,0,1,2.968-.9,1.524,1.524,0,0,1,.772.627,1.823,1.823,0,0,1,.151,1.213,19.144,19.144,0,0,1-.53,2.3,9.883,9.883,0,0,0-.541,3.654.923.923,0,0,0,.084.344.473.473,0,0,0,.449.149,1.487,1.487,0,0,0,.715-.388,5.144,5.144,0,0,0,1.571-3.957,13.547,13.547,0,0,0-.776-4.388,11.565,11.565,0,0,0-.829-1.79,10.471,10.471,0,0,0-1.8-2.3,9.8,9.8,0,0,0-1.716-1.254,17.167,17.167,0,0,0-6.935-2.325c-.694-.089-1.406-.163-2.1-.235a33.522,33.522,0,0,1-5.517-.888l.29-1.043a32.736,32.736,0,0,0,5.339.855c.7.072,1.415.147,2.122.238a18.229,18.229,0,0,1,7.37,2.48,10.788,10.788,0,0,1,1.886,1.386,11.474,11.474,0,0,1,2,2.559,12.483,12.483,0,0,1,.915,1.985,14.566,14.566,0,0,1,.83,4.723,6.217,6.217,0,0,1-1.948,4.779,2.511,2.511,0,0,1-1.263.639,1.534,1.534,0,0,1-1.528-.651,1.856,1.856,0,0,1-.239-.8,10.841,10.841,0,0,1,.573-4.059,18.242,18.242,0,0,0,.5-2.171,1.009,1.009,0,0,0-.015-.511.489.489,0,0,0-.239-.168,1.633,1.633,0,0,0-1.737.587,4.165,4.165,0,0,0-.8,2.161c-.574,4.121,1.09,8.339,2.794,11.921Z" transform="translate(-1615.485 -618.089)" fill="#c0a062"/>
    </g>
    <g id="Group_148" data-name="Group 148" transform="translate(1457.159 608.36)">
      <path id="Path_126" data-name="Path 126" d="M1536.871,793.23a9.582,9.582,0,0,1-5.587-1.676,20.448,20.448,0,0,1-4.452-4.5,3.75,3.75,0,0,1-.378-.949,1.389,1.389,0,0,1,.969-1.766c.167-.057,1.677-.513,3.389,1.2.27.269.508.56.738.84a6.643,6.643,0,0,0,1.01,1.067,5.856,5.856,0,0,0,2.521,1.083.73.73,0,0,0,.715-.271.651.651,0,0,0,.094-.685,5.134,5.134,0,0,0-.986-1.293,20.023,20.023,0,0,0-4.5-3.841,11.116,11.116,0,0,0-1.579-.663c-.347-.126-.707-.255-1.05-.4a7.466,7.466,0,0,0-4.432-.436l-.27-1.048a8.5,8.5,0,0,1,5.129.49c.314.135.643.254.991.38a11.9,11.9,0,0,1,1.736.734,20.839,20.839,0,0,1,4.753,4.039,6.124,6.124,0,0,1,1.178,1.569,1.749,1.749,0,0,1-.218,1.83,1.806,1.806,0,0,1-1.775.662,6.9,6.9,0,0,1-2.975-1.29,7.56,7.56,0,0,1-1.184-1.235c-.223-.272-.434-.529-.666-.762-1.268-1.268-2.26-.945-2.27-.941-.342.118-.326.286-.28.449a3,3,0,0,0,.254.669,19.582,19.582,0,0,0,4.215,4.234,8.758,8.758,0,0,0,5.777,1.382,9.492,9.492,0,0,0,3.745-1.649,13.148,13.148,0,0,0,1.653-1.21,15.227,15.227,0,0,0,1.962-2.312l5.386-7.272.87.645-5.386,7.272a16.047,16.047,0,0,1-2.109,2.474,14.116,14.116,0,0,1-1.788,1.313,10.41,10.41,0,0,1-4.193,1.813A7.925,7.925,0,0,1,1536.871,793.23Z" transform="translate(-1523.077 -779.652)" fill="#c0a062"/>
    </g>
    <g id="Group_149" data-name="Group 149" transform="translate(1449.704 610.935)">
      <path id="Path_127" data-name="Path 127" d="M1530.229,797.039h-.017a28.475,28.475,0,0,1-9.018-1.557,1.536,1.536,0,0,1-1.014-.816,1.437,1.437,0,0,1,.046-1.182,1.356,1.356,0,0,1,.88-.686,3.121,3.121,0,0,1,1.412.05c.107.021.213.042.318.059a14.563,14.563,0,0,0,5.193.113c.555-.114,1.281-.5,1.2-.913-.039-.2-.279-.415-.66-.581a7.856,7.856,0,0,0-3.149-.672,13.184,13.184,0,0,0-3.249.394,11.878,11.878,0,0,0-2.838,1.268c-.277.153-.554.306-.833.453-5.321,2.8-11.219,3.608-16.182,2.226a10.316,10.316,0,0,1-6.792-5.629l1.006-.4a9.336,9.336,0,0,0,6.076,4.986c4.7,1.309,10.309.528,15.389-2.142.272-.143.543-.292.813-.442a12.873,12.873,0,0,1,3.1-1.372,14.747,14.747,0,0,1,3.528-.425,9.013,9.013,0,0,1,3.564.763,1.98,1.98,0,0,1,1.291,1.372c.21,1.107-.871,1.933-2.047,2.176a15.527,15.527,0,0,1-5.582-.1c-.118-.019-.237-.042-.356-.066a2.256,2.256,0,0,0-.93-.064.278.278,0,0,0-.191.135.371.371,0,0,0,0,.3c.009.012.067.08.342.172a27.415,27.415,0,0,0,8.686,1.5,7.766,7.766,0,0,0,1.836-.362,7.24,7.24,0,0,0,1.995-1.344,29.065,29.065,0,0,0,3.536-4.061l.87.645a30.3,30.3,0,0,1-3.64,4.182,8.19,8.19,0,0,1-2.39,1.6A8.671,8.671,0,0,1,1530.229,797.039Z" transform="translate(-1495.526 -789.165)" fill="#c0a062"/>
    </g>
    <g id="Group_150" data-name="Group 150" transform="translate(1438.672 556.625)">
      <path id="Path_128" data-name="Path 128" d="M1455.572,623.742c-1.589-2.333-1.71-5.737-1.293-8.144a10.538,10.538,0,0,1,4.138-6.661,4.7,4.7,0,0,1,3.023-1.241,1.474,1.474,0,0,1,.939.515,1.777,1.777,0,0,1,.25,1,6.258,6.258,0,0,1-2.232,3.836c-.2.183-.415.352-.62.515a5.888,5.888,0,0,0-.989.912,1.356,1.356,0,0,0-.259,1.452,1.1,1.1,0,0,0,1.088.373,2.7,2.7,0,0,0,1.316-.761c1.866-1.742,2.5-4.448,2.869-6.865.167-1.087.3-2.2.432-3.281.229-1.89.465-3.845.886-5.748a17.176,17.176,0,0,1,4.048-8.34,9.584,9.584,0,0,1,8.729-2.991l-.24,1.056a8.489,8.489,0,0,0-7.708,2.685,16.128,16.128,0,0,0-3.771,7.824c-.409,1.851-.642,3.78-.868,5.644-.132,1.087-.268,2.211-.437,3.316-.4,2.6-1.093,5.524-3.2,7.492a3.721,3.721,0,0,1-1.863,1.036,2.153,2.153,0,0,1-2.187-.848,2.384,2.384,0,0,1,.315-2.714,6.813,6.813,0,0,1,1.166-1.089c.2-.16.39-.311.569-.471a5.249,5.249,0,0,0,1.882-3.154,1.2,1.2,0,0,0-.056-.235.735.735,0,0,0-.149-.076,3.871,3.871,0,0,0-2.294,1.037,9.448,9.448,0,0,0-3.709,5.97c-.38,2.2-.286,5.284,1.121,7.35Z" transform="translate(-1454.074 -588.127)" fill="#c0a062"/>
    </g>
    <g id="Group_151" data-name="Group 151" transform="translate(1442.136 563.996)">
      <path id="Path_129" data-name="Path 129" d="M1471.273,640.446a11.776,11.776,0,0,0-1.25-4.349c-.326-.758-.662-1.543-.923-2.365-.239-.752-.551-1.512-.852-2.246a14.586,14.586,0,0,1-1.371-4.908,10.691,10.691,0,0,1,3.013-7.394,13.352,13.352,0,0,1,2.753-2.139,11.982,11.982,0,0,1,4.14-1.406,3.233,3.233,0,0,1,1.516.049,1.711,1.711,0,0,1,1.2,1.313,1.83,1.83,0,0,1-.288,1.221,4.854,4.854,0,0,1-2.337,1.8,15.731,15.731,0,0,1-1.791.655l-.3.088a4.245,4.245,0,0,0-1.756.792,1.284,1.284,0,0,0-.387.933.575.575,0,0,0,.2.451,2.394,2.394,0,0,0,1.423.226,10.331,10.331,0,0,0,2.195-.492,8.906,8.906,0,0,0,1.7-.756,17.358,17.358,0,0,0,6.57-6.418l.935.547a18.438,18.438,0,0,1-6.98,6.819,9.968,9.968,0,0,1-1.9.844,11.354,11.354,0,0,1-2.406.534,3.444,3.444,0,0,1-2.2-.454,1.654,1.654,0,0,1-.611-1.255,2.355,2.355,0,0,1,.729-1.768,5.167,5.167,0,0,1,2.2-1.042l.291-.085a14.6,14.6,0,0,0,1.667-.609,3.89,3.89,0,0,0,1.84-1.361.841.841,0,0,0,.148-.5.648.648,0,0,0-.463-.446,2.272,2.272,0,0,0-1.007-.01,10.8,10.8,0,0,0-3.783,1.281,12.369,12.369,0,0,0-2.511,1.954,9.544,9.544,0,0,0-2.7,6.592,13.58,13.58,0,0,0,1.29,4.541c.31.755.631,1.535.883,2.33.244.771.571,1.53.886,2.264a12.774,12.774,0,0,1,1.337,4.751Z" transform="translate(-1466.871 -615.498)" fill="#c0a062"/>
    </g>
  </g>
</svg>
