<svg xmlns="http://www.w3.org/2000/svg" width="44.375" height="72.073" viewBox="0 0 44.375 72.073">
  <path id="Union_1" data-name="Union 1" d="M-5964,49.386V28.44a3.1,3.1,0,0,1,3.1-3.1,6.792,6.792,0,0,1,5.271,2.5V11.928a4.945,4.945,0,0,1,1.375-3.429,4.946,4.946,0,0,1,6.993-.147v-3.4A4.952,4.952,0,0,1-5942.311,0a4.953,4.953,0,0,1,4.95,4.954v3.39a4.954,4.954,0,0,1,3.42-1.37,4.952,4.952,0,0,1,4.948,4.953V27.846a6.79,6.79,0,0,1,5.27-2.5,3.1,3.1,0,0,1,3.1,3.1V49.386a21.7,21.7,0,0,1-21.687,21.687A21.7,21.7,0,0,1-5964,49.386Zm1.537-20.946V49.386a20.151,20.151,0,0,0,20.149,20.149,20.153,20.153,0,0,0,20.152-20.149V28.44a1.565,1.565,0,0,0-1.561-1.561,5.273,5.273,0,0,0-5.27,5.27v9.763a.769.769,0,0,1-.77.768.768.768,0,0,1-.768-.768V11.928a3.416,3.416,0,0,0-3.413-3.414,3.415,3.415,0,0,0-3.418,3.414V36.334a.768.768,0,0,1-.768.768.768.768,0,0,1-.768-.768V4.954a3.417,3.417,0,0,0-3.414-3.414,3.417,3.417,0,0,0-3.418,3.414v31.38a.768.768,0,0,1-.768.768.768.768,0,0,1-.768-.768V11.928a3.415,3.415,0,0,0-3.416-3.416,3.415,3.415,0,0,0-3.416,3.416V41.912a.768.768,0,0,1-.768.768.768.768,0,0,1-.768-.768V32.149a5.275,5.275,0,0,0-5.271-5.27A1.563,1.563,0,0,0-5962.463,28.44Zm18.966,35.068-9.014-9.012a7.083,7.083,0,0,1,0-10.015,7.083,7.083,0,0,1,10.015,0,7.082,7.082,0,0,1,10.014,0,7.081,7.081,0,0,1,0,10.015l-9.012,9.012a1.411,1.411,0,0,1-1,.415A1.4,1.4,0,0,1-5943.5,63.508Zm-8.012-18.026a5.666,5.666,0,0,0,0,8.012l9.013,9.012,9.012-9.012a5.666,5.666,0,0,0,0-8.012,5.664,5.664,0,0,0-8.011,0l-1,1-1-1a5.652,5.652,0,0,0-4.007-1.658A5.646,5.646,0,0,0-5951.51,45.482Z" transform="translate(5964.5 0.5)" fill="#c0a062" stroke="rgba(0,0,0,0)" stroke-width="1"/>
</svg>
