<svg xmlns="http://www.w3.org/2000/svg" width="42.72" height="70" viewBox="0 0 42.72 70">
  <g id="Group_60" data-name="Group 60" transform="translate(-21.766 -3.997)">
    <g id="Group_58" data-name="Group 58" transform="translate(21.766 3.997)">
      <path id="Path_65" data-name="Path 65" d="M43.126,74a21.367,21.367,0,0,0,21.36-21.36V32.007a3.054,3.054,0,0,0-3.05-3.05,6.692,6.692,0,0,0-5.191,2.466V15.744A4.875,4.875,0,0,0,48,12.216V8.877a4.877,4.877,0,0,0-9.755-.005v3.351a4.871,4.871,0,0,0-8.242,3.522V31.423a6.692,6.692,0,0,0-5.191-2.466,3.054,3.054,0,0,0-3.05,3.05v15.33h0v5.3A21.367,21.367,0,0,0,43.126,74ZM23.279,32.007a1.54,1.54,0,0,1,1.537-1.537,5.194,5.194,0,0,1,5.191,5.191v9.615a.757.757,0,1,0,1.513,0V15.744a3.364,3.364,0,1,1,6.729,0V39.782a.757.757,0,1,0,1.513,0V8.877a3.364,3.364,0,0,1,6.729,0V39.782a.757.757,0,1,0,1.513,0V15.744a3.364,3.364,0,0,1,6.729,0V45.277a.757.757,0,1,0,1.513,0V35.662a5.194,5.194,0,0,1,5.191-5.191,1.541,1.541,0,0,1,1.537,1.537v20.63a19.847,19.847,0,0,1-39.694,0V32.007Z" transform="translate(-21.766 -3.997)" fill="#c0a062"/>
    </g>
    <g id="Group_59" data-name="Group 59" transform="translate(32.282 45.866)">
      <path id="Path_66" data-name="Path 66" d="M53.233,77.691h4.753c6.66,0,.952-11.417-2.854-13.319H51.327a9.463,9.463,0,0,0-3.006,2.908,5.553,5.553,0,0,1,.754.582,9.27,9.27,0,0,1,2.5-2.54l3.326,0c1.606.947,3.719,3.929,4.689,6.731,1.061,3.064.558,4.684-1.6,4.684h-4.53A2.4,2.4,0,0,1,53.233,77.691Z" transform="translate(-38.747 -60.566)" fill="#c0a062" fill-rule="evenodd"/>
      <path id="Path_67" data-name="Path 67" d="M51.746,61.306c-.314-.627-.076-1.014.632-1.014h2.843c.7,0,.941.395.632,1.014L54.8,63.41l.851.426,1.052-2.1a1.554,1.554,0,0,0-1.483-2.391H52.378A1.549,1.549,0,0,0,50.9,61.732l1.052,2.1.851-.426Z" transform="translate(-39.317 -59.341)" fill="#c0a062" fill-rule="evenodd"/>
      <path id="Path_68" data-name="Path 68" d="M45.391,66.887c3.806,1.9,9.514,13.319,2.854,13.319H38.731c-6.66,0-.952-11.417,2.854-13.319Zm-3.562.95c-1.607.943-3.724,3.929-4.7,6.735-1.061,3.064-.558,4.684,1.6,4.684h9.514c2.155,0,2.659-1.62,1.6-4.684-.97-2.8-3.083-5.784-4.689-6.731Z" transform="translate(-35.666 -61.178)" fill="#c0a062" fill-rule="evenodd"/>
      <path id="Path_69" data-name="Path 69" d="M42.943,63.822c-.314-.627-.076-1.014.632-1.014h2.843c.7,0,.941.395.632,1.014L46,65.926l.851.425,1.052-2.1a1.553,1.553,0,0,0-1.483-2.391H43.575a1.549,1.549,0,0,0-1.483,2.391l1.052,2.1.851-.425Z" transform="translate(-37.174 -59.954)" fill="#c0a062" fill-rule="evenodd"/>
    </g>
  </g>
</svg>
