<svg xmlns="http://www.w3.org/2000/svg" width="24" height="29" viewBox="0 0 24 29">
  <g transform="translate(-32.5 -29.5)">
    <g transform="translate(32.5 29.5)">
      <path d="M56.5,57.439a1.029,1.029,0,1,1-2.057,0,9.948,9.948,0,1,0-19.886,0,1.029,1.029,0,1,1-2.057,0,12.006,12.006,0,1,1,24,0Zm-12-13.085a7.43,7.43,0,1,1,7.2-7.427A7.316,7.316,0,0,1,44.5,44.354Zm0-2.122a5.307,5.307,0,1,0-5.143-5.3A5.226,5.226,0,0,0,44.5,42.232Z" transform="translate(-32.5 -29.5)" fill="#c0a062"/>
    </g>
  </g>
</svg>
